ISSS608-VAA - Take-home Exercise 1
…
# Group by school ID and calculate the mean of the student averages for each school
school_avg_scores <- stu_qqq_Sg %>%
  group_by(CNTSCHID) %>%
  summarise(AvgMathScore = mean(AvgMathPV, na.rm = TRUE),
            AvgReadScore = mean(AvgReadPV, na.rm = TRUE),
            AvgScieScore = mean(AvgSciePV, na.rm = TRUE))

# View the school level averages
print(school_avg_scores)

# A tibble: 164 × 4
   CNTSCHID AvgMathScore AvgReadScore AvgScieScore
   <fct>           <dbl>        <dbl>        <dbl>
 1 70200001         725.         653.         698.
 2 70200002         535.         507.         534.
 3 70200003         740.         665.         714.
 4 70200004         510.         480.         494.
 5 70200005         547.         516.         529.
 6 70200006         487.         468.         477.
 7 70200007         580.         540.         579.
 8 70200008         567.         522.         540.
 9 70200009         560.         536.         552.
10 70200010         531.         503.         540.
# ℹ 154 more rows
…
